<svg xmlns="http://www.w3.org/2000/svg" xmlns:xlink="http://www.w3.org/1999/xlink" width="1117" height="792" viewBox="0 0 1117 792">
  <defs>
    <clipPath id="clip-Target">
      <rect width="1117" height="792"/>
    </clipPath>
  </defs>
  <g id="Target" clip-path="url(#clip-Target)">
    <rect width="1117" height="792" fill="rgba(255,255,255,0)"/>
    <g id="Groupe_101" data-name="Groupe 101" transform="translate(-40.382 -1509)">
      <g id="freepik--background-complete--inject-17" transform="translate(103.619 1753.65)">
        <path id="Tracé_3721" data-name="Tracé 3721" d="M50.86,351.835l175.956-.274s-8.754-11.366-18.4-12.783c0,0-18.852-55.809-50.262-56.157-29.2-.323-40.837,34.4-40.837,34.4s-13.554-15.544-26.462-8.406-20.195,27.531-20.195,27.531S56.132,344,50.86,351.835Z" transform="translate(805.057 -131.269)" fill="#ebebeb"/>
        <path id="Tracé_3722" data-name="Tracé 3722" d="M503.823,393.668l-222.513.348s0-14.226,30.615-17.036c0,0,27.9-62.175,70.631-53.918,26.636,5.173,40.29,41.682,40.29,41.682s20.07-28.775,36.161-23.254S484.7,377.5,484.7,377.5,501.286,385.51,503.823,393.668Z" transform="translate(-316.924 -170.956)" fill="#ebebeb"/>
        <path id="Tracé_3724" data-name="Tracé 3724" d="M539.595,411.267l-151.285.224s14.251-13.305,20.592-13.33,24.87-44.642,48.472-42.777,36.285,35.067,36.285,35.067S522.41,381.373,539.595,411.267Z" transform="translate(-388.31 -10.522)" fill="#ebebeb"/>
        <path id="Tracé_3725" data-name="Tracé 3725" d="M304.58,272.631l-151.31.249s14.275-13.33,20.617-13.33,24.87-44.766,48.472-42.8,36.261,35.067,36.261,35.067S287.394,242.762,304.58,272.631Z" transform="translate(431.252 -216.685)" fill="#ebebeb"/>
        <path id="Tracé_3726" data-name="Tracé 3726" d="M512.715,288.072l-129.324.2s6.441-8.381,13.529-9.426c0,0,13.728-41.11,36.808-41.434,21.488-.3,30.118,25.218,30.118,25.218s9.948-11.465,19.448-6.242,14.922,20.194,14.922,20.194S508.711,282.327,512.715,288.072Z" transform="translate(-349.194 -185.868)" fill="#ebebeb"/>
        <path id="Tracé_3727" data-name="Tracé 3727" d="M248.795,379.532l-129.325.2s6.417-8.406,13.529-9.451c0,0,13.728-41.085,36.808-41.409,21.488-.323,30.118,25.193,30.118,25.193s9.948-11.465,19.448-6.242S234.3,368.017,234.3,368.017,244.989,373.762,248.795,379.532Z" transform="translate(695.1 -45.339)" fill="#ebebeb"/>
      </g>
      <g id="Groupe_95" data-name="Groupe 95" transform="translate(197.212 1483.916)">
        <g id="Groupe_94" data-name="Groupe 94" transform="translate(0 70.626)">
          <g id="freepik--background-complete--inject-1012" transform="translate(1.411 26.615)">
            <g id="To_the_stars-cuate" data-name="To the stars-cuate" transform="translate(0 0)">
              <g id="freepik--Moon--inject-17" transform="translate(776.519 75.58)">
                <ellipse id="Ellipse_83" data-name="Ellipse 83" cx="48.372" cy="48.372" rx="48.372" ry="48.372" fill="#ebebeb"/>
                <path id="Tracé_3729" data-name="Tracé 3729" d="M420.423,93.39a10.769,10.769,0,0,1-1.791,6.491,12.809,12.809,0,0,1-5.248,4.651,9.55,9.55,0,0,1-7.113.6,9.948,9.948,0,0,1-5.422-4.153,14.25,14.25,0,0,0,5.819,2.487,7.885,7.885,0,0,0,2.96,0,9.276,9.276,0,0,0,2.81-.9,14.571,14.571,0,0,0,1.368-.746,11.081,11.081,0,0,0,1.244-.87,13.028,13.028,0,0,0,2.263-2.114,16.365,16.365,0,0,0,3.109-5.447Z" transform="translate(-354.442 -73.718)" fill="#c7c7c7"/>
                <path id="Tracé_3730" data-name="Tracé 3730" d="M401.767,99.659a7.014,7.014,0,0,1,.995-4.626,8.705,8.705,0,0,1,3.656-3.308,6.591,6.591,0,0,1,4.974-.348A6.342,6.342,0,0,1,415,94.462a10.7,10.7,0,0,0-4-1.492,6.64,6.64,0,0,0-3.73.647,11.49,11.49,0,0,0-5.5,6.043Z" transform="translate(-353.171 -77.202)" fill="#c7c7c7"/>
                <path id="Tracé_3731" data-name="Tracé 3731" d="M408.51,114.07a6.566,6.566,0,0,1,.124,4.626,8.134,8.134,0,0,1-2.786,3.9,6.367,6.367,0,0,1-4.775,1.293,6.491,6.491,0,0,1-4.054-2.238,11.789,11.789,0,0,0,4.128.6,6.391,6.391,0,0,0,3.407-1.318,10.146,10.146,0,0,0,2.487-2.885,11.787,11.787,0,0,0,1.467-3.979Z" transform="translate(-360.138 -42.966)" fill="#c7c7c7"/>
                <path id="Tracé_3732" data-name="Tracé 3732" d="M397.91,120.468a4.278,4.278,0,0,1-.323-3.233,5.52,5.52,0,0,1,1.94-2.835,4.377,4.377,0,0,1,3.457-.87,4.1,4.1,0,0,1,2.761,1.791,9.425,9.425,0,0,0-2.835-.149,4.65,4.65,0,0,0-2.089.9,8.332,8.332,0,0,0-2.91,4.4Z" transform="translate(-359.56 -43.868)" fill="#c7c7c7"/>
                <path id="Tracé_3733" data-name="Tracé 3733" d="M398.541,96.58a4.327,4.327,0,0,1,1.393,3.109,4.825,4.825,0,0,1-1.368,3.407,4.278,4.278,0,0,1-3.556,1.219A4.975,4.975,0,0,1,392,102.847a14.224,14.224,0,0,0,2.984-.249,3.557,3.557,0,0,0,2.064-1.045,4.8,4.8,0,0,0,1.244-2.089,9.106,9.106,0,0,0,.249-2.885Z" transform="translate(-367.602 -68.974)" fill="#c7c7c7"/>
                <path id="Tracé_3734" data-name="Tracé 3734" d="M392.936,101.779a2.86,2.86,0,0,1-1.194-2.164,3.332,3.332,0,0,1,.945-2.487,3.134,3.134,0,0,1,4.725.423,14.919,14.919,0,0,0-2.039.4,2.488,2.488,0,0,0-1.169.671,4.028,4.028,0,0,0-.821,1.219,7.463,7.463,0,0,0-.448,1.94Z" transform="translate(-367.991 -69.472)" fill="#c7c7c7"/>
                <path id="Tracé_3735" data-name="Tracé 3735" d="M413.188,119.98a4.427,4.427,0,0,1-2.686,2.089,4.75,4.75,0,0,1-3.656-.5,4.3,4.3,0,0,1-2.039-3.134,5.2,5.2,0,0,1,.671-3.308,16.761,16.761,0,0,0,.945,2.86,3.705,3.705,0,0,0,1.517,1.766,4.974,4.974,0,0,0,2.338.672A9.226,9.226,0,0,0,413.188,119.98Z" transform="translate(-348.625 -41.39)" fill="#c7c7c7"/>
                <path id="Tracé_3736" data-name="Tracé 3736" d="M405.73,116.3a2.736,2.736,0,0,1,1.766-1.691,3.358,3.358,0,0,1,2.711.323,2.935,2.935,0,0,1,1.467,2.338,3.134,3.134,0,0,1-.721,2.338,15.615,15.615,0,0,0-.87-1.89,2.711,2.711,0,0,0-.945-.97,3.583,3.583,0,0,0-1.393-.5,6.99,6.99,0,0,0-2.014.05Z" transform="translate(-347.186 -42.387)" fill="#c7c7c7"/>
                <path id="Tracé_3737" data-name="Tracé 3737" d="M420.238,103.39a4.278,4.278,0,0,1-1.045,3.233,4.626,4.626,0,0,1-3.283,1.641,4.178,4.178,0,0,1-3.457-1.442,4.974,4.974,0,0,1-1.293-3.109,16.032,16.032,0,0,0,2.363,1.865,3.979,3.979,0,0,0,2.263.6,4.974,4.974,0,0,0,2.313-.771,8.456,8.456,0,0,0,2.139-2.015Z" transform="translate(-339.111 -58.848)" fill="#c7c7c7"/>
                <path id="Tracé_3738" data-name="Tracé 3738" d="M411.807,105.448a2.81,2.81,0,0,1,.522-2.487,3.333,3.333,0,0,1,2.487-1.268,2.984,2.984,0,0,1,2.487,1.119,3.109,3.109,0,0,1,.721,2.313,16.909,16.909,0,0,0-1.791-1.045,2.487,2.487,0,0,0-1.343-.274,3.532,3.532,0,0,0-1.418.373,7.04,7.04,0,0,0-1.666,1.268Z" transform="translate(-338.291 -61.378)" fill="#c7c7c7"/>
                <path id="Tracé_3739" data-name="Tracé 3739" d="M394.478,107.8a4.3,4.3,0,0,1-1.044,3.233,4.676,4.676,0,0,1-3.283,1.641,4.253,4.253,0,0,1-3.457-1.442,4.975,4.975,0,0,1-1.293-3.109,16.135,16.135,0,0,0,2.487,1.84,3.755,3.755,0,0,0,2.238.6,4.974,4.974,0,0,0,2.313-.746A9.527,9.527,0,0,0,394.478,107.8Z" transform="translate(-377.417 -52.29)" fill="#c7c7c7"/>
                <path id="Tracé_3740" data-name="Tracé 3740" d="M386.056,109.844a2.835,2.835,0,0,1,.522-2.487,3.308,3.308,0,0,1,2.487-1.244,2.934,2.934,0,0,1,2.487,1.119,3.158,3.158,0,0,1,.721,2.313,17.659,17.659,0,0,0-1.791-1.069,2.934,2.934,0,0,0-1.343-.274,4,4,0,0,0-1.417.373,8.108,8.108,0,0,0-1.666,1.268Z" transform="translate(-376.581 -54.806)" fill="#c7c7c7"/>
                <path id="Tracé_3741" data-name="Tracé 3741" d="M464.471,167.91A48.347,48.347,0,0,1,382.4,139.857,44.766,44.766,0,1,0,435.125,85.59a48.348,48.348,0,0,1,29.446,82.32Z" transform="translate(-381.878 -85.316)" fill="#dbdbdb"/>
              </g>
              <g id="freepik--Stars--inject-17" transform="translate(0 0)">
                <path id="Tracé_3742" data-name="Tracé 3742" d="M368.63,335.109,378.852,337l2.288,10.794L383.4,337l10.246-1.89-10.2-2.487L381.14,322.45,378.8,332.622Z" transform="translate(374.165 342.477)" fill="#a6a6a6"/>
                <path id="Tracé_3743" data-name="Tracé 3743" d="M201.72,359.064l10.222,1.89,2.288,10.769,2.288-10.769,10.222-1.89-10.172-2.487-2.338-10.2-2.338,10.2Z" transform="translate(125.968 378.061)" fill="#a6a6a6"/>
                <path id="Tracé_3744" data-name="Tracé 3744" d="M324.78,262.279,335,264.169l2.288,10.794,2.288-10.794,10.222-1.89-10.2-2.487L337.29,249.62l-2.338,10.172Z" transform="translate(308.96 234.178)" fill="#a6a6a6"/>
                <path id="Tracé_3745" data-name="Tracé 3745" d="M424.42,304.388l5.7,1.045,1.293,6.043,1.268-6.043,5.72-1.045L432.7,303l-1.293-5.7L430.09,303Z" transform="translate(457.125 305.079)" fill="#a6a6a6"/>
                <path id="Tracé_3746" data-name="Tracé 3746" d="M354.36,384.423l5.7,1.069,1.293,6.019,1.268-6.019,5.72-1.069-5.7-1.393-1.293-5.67-1.318,5.67Z" transform="translate(352.945 424.129)" fill="#a6a6a6"/>
                <path id="Tracé_3747" data-name="Tracé 3747" d="M375.58,192.473l5.72,1.069,1.268,6.019,1.293-6.019,5.72-1.069-5.7-1.393-1.318-5.67-1.293,5.67Z" transform="translate(384.5 138.697)" fill="#a6a6a6"/>
                <path id="Tracé_3748" data-name="Tracé 3748" d="M216.35,377.038l5.72,1.045,1.293,6.019,1.268-6.019,5.72-1.045-5.7-1.393-1.293-5.7-1.318,5.7Z" transform="translate(147.723 413.11)" fill="#a6a6a6"/>
                <path id="Tracé_3749" data-name="Tracé 3749" d="M115.75,388.808l5.72,1.044,1.268,6.019,1.293-6.019,5.72-1.044-5.7-1.393-1.318-5.7-1.293,5.7Z" transform="translate(-1.87 430.612)" fill="#a6a6a6"/>
                <path id="Tracé_3750" data-name="Tracé 3750" d="M366.71,253.858l5.72,1.045,1.293,6.043,1.268-6.043,5.72-1.045-5.7-1.393-1.293-5.7-1.318,5.7Z" transform="translate(371.31 229.94)" fill="#a6a6a6"/>
                <path id="Tracé_3751" data-name="Tracé 3751" d="M315.37,114.788l5.72,1.045,1.268,6.043,1.268-6.043,5.72-1.045-5.7-1.393-1.293-5.7-1.293,5.7Z" transform="translate(294.967 23.142)" fill="#a6a6a6"/>
                <path id="Tracé_3752" data-name="Tracé 3752" d="M315.67,203.088l5.72,1.069,1.268,6.019,1.268-6.019,5.72-1.069-5.7-1.393-1.293-5.7-1.293,5.7Z" transform="translate(295.413 154.445)" fill="#a6a6a6"/>
                <path id="Tracé_3753" data-name="Tracé 3753" d="M362.124,407.27a1.666,1.666,0,1,1-1.463,1.654A1.666,1.666,0,0,1,362.124,407.27Z" transform="translate(362.317 468.605)" fill="#a6a6a6"/>
                <path id="Tracé_3754" data-name="Tracé 3754" d="M342.785,239.72a1.666,1.666,0,1,1-1.463,1.654,1.666,1.666,0,0,1,1.463-1.654Z" transform="translate(333.557 219.457)" fill="#a6a6a6"/>
                <path id="Tracé_3755" data-name="Tracé 3755" d="M170.875,332a1.666,1.666,0,1,1-1.463,1.654A1.666,1.666,0,0,1,170.875,332Z" transform="translate(77.926 356.678)" fill="#a6a6a6"/>
                <path id="Tracé_3756" data-name="Tracé 3756" d="M357.4,304.29a1.666,1.666,0,1,1-1.463,1.654A1.666,1.666,0,0,1,357.4,304.29Z" transform="translate(355.298 315.473)" fill="#a6a6a6"/>
                <path id="Tracé_3757" data-name="Tracé 3757" d="M378.639,395.29a1.169,1.169,0,1,1-1.169,1.169,1.169,1.169,0,0,1,1.169-1.169Z" transform="translate(387.31 450.791)" fill="#a6a6a6"/>
                <path id="Tracé_3758" data-name="Tracé 3758" d="M379.021,145.86A1.194,1.194,0,1,1,378,147.041a1.194,1.194,0,0,1,1.022-1.181Z" transform="translate(388.097 79.886)" fill="#a6a6a6"/>
                <path id="Tracé_3759" data-name="Tracé 3759" d="M331.059,291.15a1.169,1.169,0,1,1-1.169,1.169A1.169,1.169,0,0,1,331.059,291.15Z" transform="translate(316.558 295.934)" fill="#a6a6a6"/>
                <path id="Tracé_3760" data-name="Tracé 3760" d="M301.8,283.86a3.183,3.183,0,1,1-2.9,3.171A3.183,3.183,0,0,1,301.8,283.86Z" transform="translate(270.466 285.093)" fill="#a6a6a6"/>
                <path id="Tracé_3761" data-name="Tracé 3761" d="M88.58,118.784l10.222,1.89,2.288,10.769,2.288-10.769,10.222-1.915-10.172-2.487L101.09,106.1l-2.338,10.172Z" transform="translate(-42.272 20.762)" fill="#a6a6a6"/>
                <path id="Tracé_3762" data-name="Tracé 3762" d="M175.96,62.178l5.72,1.045,1.268,6.043,1.293-6.043,5.7-1.045-5.67-1.393-1.318-5.7-1.293,5.7Z" transform="translate(87.663 -55.09)" fill="#a6a6a6"/>
                <path id="Tracé_3763" data-name="Tracé 3763" d="M183.385,139.92a1.666,1.666,0,1,1-1.463,1.654,1.666,1.666,0,0,1,1.463-1.654Z" transform="translate(96.528 71.053)" fill="#a6a6a6"/>
                <path id="Tracé_3764" data-name="Tracé 3764" d="M110.995,374.2a1.666,1.666,0,1,1-1.463,1.654,1.666,1.666,0,0,1,1.463-1.654Z" transform="translate(-11.116 419.43)" fill="#a6a6a6"/>
                <path id="Tracé_3765" data-name="Tracé 3765" d="M128.145,232.47a1.666,1.666,0,1,1-1.463,1.654,1.666,1.666,0,0,1,1.463-1.654Z" transform="translate(14.386 208.676)" fill="#a6a6a6"/>
                <path id="Tracé_3766" data-name="Tracé 3766" d="M154.329,321.54a1.169,1.169,0,1,1-1.169,1.169,1.169,1.169,0,0,1,1.169-1.169Z" transform="translate(53.759 341.124)" fill="#a6a6a6"/>
                <path id="Tracé_3767" data-name="Tracé 3767" d="M281.1,360.89a1.169,1.169,0,1,1-1.169,1.169A1.169,1.169,0,0,1,281.1,360.89Z" transform="translate(242.267 399.638)" fill="#a6a6a6"/>
                <path id="Tracé_3768" data-name="Tracé 3768" d="M329.579,148.4a1.169,1.169,0,1,1-1.169,1.169A1.169,1.169,0,0,1,329.579,148.4Z" transform="translate(314.358 83.663)" fill="#a6a6a6"/>
                <path id="Tracé_3769" data-name="Tracé 3769" d="M237.405,298.14a3.183,3.183,0,1,1-2.9,3.171A3.183,3.183,0,0,1,237.405,298.14Z" transform="translate(174.717 306.328)" fill="#a6a6a6"/>
                <path id="Tracé_3770" data-name="Tracé 3770" d="M376.193,151.4a3.183,3.183,0,1,1-3.183,3.183,3.183,3.183,0,0,1,3.183-3.183Z" transform="translate(380.678 88.124)" fill="#a6a6a6"/>
                <path id="Tracé_3771" data-name="Tracé 3771" d="M78.555,320.26a3.183,3.183,0,1,1-2.9,3.171A3.183,3.183,0,0,1,78.555,320.26Z" transform="translate(-61.494 339.221)" fill="#a6a6a6"/>
                <path id="Tracé_3772" data-name="Tracé 3772" d="M167.15,192.858l5.7,1.045,1.293,6.043,1.268-6.043,5.72-1.045-5.7-1.393-1.293-5.7-1.293,5.7Z" transform="translate(74.562 139.233)" fill="#a6a6a6"/>
                <path id="Tracé_3773" data-name="Tracé 3773" d="M274.78,339.728l5.72,1.044,1.268,6.019,1.268-6.019,5.72-1.044-5.7-1.393-1.293-5.7-1.293,5.7Z" transform="translate(234.609 357.63)" fill="#a6a6a6"/>
                <path id="Tracé_3774" data-name="Tracé 3774" d="M330.135,375a1.666,1.666,0,1,1-1.463,1.654A1.666,1.666,0,0,1,330.135,375Z" transform="translate(314.747 420.62)" fill="#a6a6a6"/>
                <path id="Tracé_3775" data-name="Tracé 3775" d="M350.355,339.1a1.666,1.666,0,1,1-1.463,1.654A1.666,1.666,0,0,1,350.355,339.1Z" transform="translate(344.814 367.236)" fill="#a6a6a6"/>
                <path id="Tracé_3776" data-name="Tracé 3776" d="M401.64,371.338l5.72,1.045,1.293,6.043,1.268-6.043,5.72-1.045-5.7-1.393-1.293-5.7-1.318,5.7Z" transform="translate(423.251 404.634)" fill="#a6a6a6"/>
                <path id="Tracé_3777" data-name="Tracé 3777" d="M332.706,160.67a1.666,1.666,0,1,1-1.666,1.666A1.666,1.666,0,0,1,332.706,160.67Z" transform="translate(318.268 101.909)" fill="#a6a6a6"/>
                <path id="Tracé_3778" data-name="Tracé 3778" d="M378.7,341.2a1.169,1.169,0,1,1-1.169,1.169A1.169,1.169,0,0,1,378.7,341.2Z" transform="translate(387.4 370.359)" fill="#a6a6a6"/>
                <path id="Tracé_3779" data-name="Tracé 3779" d="M136.69,265.668l5.72,1.045,1.268,6.019,1.268-6.019,5.72-1.069-5.7-1.368-1.293-5.7-1.293,5.7Z" transform="translate(29.268 247.502)" fill="#a6a6a6"/>
                <path id="Tracé_3780" data-name="Tracé 3780" d="M69.96,210.838l5.72,1.069,1.268,6.019,1.268-6.019,5.72-1.069-5.7-1.393-1.293-5.7-1.293,5.7Z" transform="translate(-69.96 165.969)" fill="#a6a6a6"/>
                <path id="Tracé_3781" data-name="Tracé 3781" d="M189.15,137.288l5.72,1.069,1.293,6.019,1.268-6.019,5.72-1.069-5.7-1.393-1.293-5.7-1.318,5.7Z" transform="translate(107.277 56.599)" fill="#a6a6a6"/>
                <path id="Tracé_3782" data-name="Tracé 3782" d="M110.995,298.08a1.666,1.666,0,1,1-1.463,1.654,1.666,1.666,0,0,1,1.463-1.654Z" transform="translate(-11.117 306.239)" fill="#a6a6a6"/>
                <path id="Tracé_3783" data-name="Tracé 3783" d="M182.095,268.8a1.666,1.666,0,1,1-1.463,1.654A1.666,1.666,0,0,1,182.095,268.8Z" transform="translate(94.61 262.699)" fill="#a6a6a6"/>
                <path id="Tracé_3784" data-name="Tracé 3784" d="M167.439,175.66a1.169,1.169,0,1,1-1.169,1.169A1.169,1.169,0,0,1,167.439,175.66Z" transform="translate(73.254 124.199)" fill="#a6a6a6"/>
                <path id="Tracé_3785" data-name="Tracé 3785" d="M95.345,223.88a3.183,3.183,0,1,1-2.9,3.171,3.183,3.183,0,0,1,2.9-3.171Z" transform="translate(-36.528 195.903)" fill="#a6a6a6"/>
                <path id="Tracé_3786" data-name="Tracé 3786" d="M419.965,206.6a3.183,3.183,0,1,1-2.9,3.171,3.183,3.183,0,0,1,2.9-3.171Z" transform="translate(446.185 170.207)" fill="#a6a6a6"/>
                <path id="Tracé_3787" data-name="Tracé 3787" d="M151.383,183.6a3.183,3.183,0,1,1-3.183,3.183,3.183,3.183,0,0,1,3.183-3.183Z" transform="translate(46.384 136.006)" fill="#a6a6a6"/>
              </g>
            </g>
            <rect id="Rectangle_9" data-name="Rectangle 9" width="11.129" height="0.44" transform="translate(183.83 635.306)" fill="#ebebeb"/>
            <rect id="Rectangle_10" data-name="Rectangle 10" width="164.701" height="0.44" transform="translate(231.141 642.725)" fill="#ebebeb"/>
            <path id="Tracé_3696" data-name="Tracé 3696" d="M221.737,179.93h-8.984l-2.233-7.05-2.18,7.05h-9.23l7.279,6.294-3.481,11.27,7.613-7.718,7.806,7.718L214.7,186.1Z" transform="translate(150.95 79.137)" fill="#fff"/>
            <path id="Tracé_3697" data-name="Tracé 3697" d="M314.675,343.51h-9l-2.233-7.05-2.18,7.05h-9.23l7.279,6.294-3.481,11.27,7.613-7.718,7.806,7.718-3.6-11.393Z" transform="translate(221.395 203.151)" fill="#fff"/>
            <path id="Tracé_3698" data-name="Tracé 3698" d="M216.557,247.924h-3.85l-.949-3.024-.932,3.024H206.87l3.112,2.69-1.477,4.817,3.253-3.288,3.34,3.288-1.547-4.87Z" transform="translate(156.833 133.737)" fill="#fff"/>
            <path id="Tracé_3699" data-name="Tracé 3699" d="M353.877,232.634h-3.85l-.949-3.024-.932,3.024H344.19l3.112,2.69-1.477,4.817,3.253-3.305,3.34,3.305-1.547-4.87Z" transform="translate(260.939 122.146)" fill="#fff"/>
            <path id="Tracé_3700" data-name="Tracé 3700" d="M217.76,223.9h-3.833l-.967-3.024-.932,3.024H208.09l3.112,2.69-1.494,4.817,3.253-3.288,3.34,3.288-1.547-4.87Z" transform="translate(157.758 115.527)" fill="#fff"/>
            <path id="Tracé_3701" data-name="Tracé 3701" d="M141.1,231.306h-3.85L136.3,228.3l-.932,3.006H131.41l3.112,2.69-1.477,4.835,3.253-3.305,3.34,3.305-1.547-4.87Z" transform="translate(99.625 121.152)" fill="#fff"/>
            <path id="Tracé_3702" data-name="Tracé 3702" d="M150.08,273.024h-3.833L145.28,270l-.932,3.024H140.41l3.112,2.69-1.494,4.817,3.252-3.305,3.34,3.305-1.547-4.87Z" transform="translate(106.448 152.766)" fill="#fff"/>
            <path id="Tracé_3703" data-name="Tracé 3703" d="M344.047,189.574H340.2l-.949-3.024-.932,3.024H334.36l3.112,2.69L336,197.081l3.253-3.288,3.34,3.288-1.547-4.87Z" transform="translate(253.487 89.501)" fill="#fff"/>
            <path id="Tracé_3704" data-name="Tracé 3704" d="M326.637,130.808h-2.778l-.686-2.2-.686,2.2H319.64l2.25,1.934-1.073,3.481,2.356-2.373,2.409,2.373-1.125-3.516Z" transform="translate(242.327 45.575)" fill="#fff"/>
            <path id="Tracé_3705" data-name="Tracé 3705" d="M234.737,189.578H231.96l-.686-2.2-.686,2.2H227.74l2.25,1.934-1.072,3.481,2.356-2.373,2.409,2.373-1.108-3.516Z" transform="translate(172.655 90.13)" fill="#fff"/>
            <path id="Tracé_3706" data-name="Tracé 3706" d="M175.437,202.35h-2.778l-.7-2.18-.668,2.18H168.44l2.25,1.934-1.072,3.5,2.338-2.391,2.409,2.391-1.108-3.516Z" transform="translate(127.699 99.826)" fill="#fff"/>
            <path id="Tracé_3707" data-name="Tracé 3707" d="M260.7,130.65h-2.778l-.686-2.18-.686,2.18H253.7l2.25,1.934-1.072,3.481,2.356-2.373,2.409,2.373-1.125-3.516Z" transform="translate(192.336 45.469)" fill="#fff"/>
            <path id="Tracé_3708" data-name="Tracé 3708" d="M379.307,207.93H376.53l-.686-2.18-.686,2.18H372.31l2.25,1.952-1.072,3.481,2.356-2.391,2.409,2.391-1.125-3.516Z" transform="translate(282.257 104.057)" fill="#fff"/>
            <path id="Tracé_3709" data-name="Tracé 3709" d="M338.147,158.93h-2.76l-.7-2.18-.668,2.18H331.15l2.268,1.952-1.09,3.481,2.356-2.391,2.409,2.391-1.108-3.516Z" transform="translate(251.053 66.909)" fill="#fff"/>
            <path id="Tracé_3710" data-name="Tracé 3710" d="M387.007,238.86h-2.778l-.7-2.18-.668,2.18H380.01l2.25,1.952-1.073,3.481,2.338-2.391,2.426,2.391-1.125-3.534Z" transform="translate(288.095 127.505)" fill="#fff"/>
            <path id="Tracé_3711" data-name="Tracé 3711" d="M350.577,300.95H347.8l-.7-2.18-.668,2.18H343.58l2.25,1.934-1.072,3.481,2.338-2.374,2.409,2.374-1.108-3.516Z" transform="translate(260.477 174.577)" fill="#fff"/>
            <path id="Tracé_3712" data-name="Tracé 3712" d="M323.717,234.78H320.94l-.686-2.18-.686,2.18H316.72l2.25,1.952-1.072,3.481,2.356-2.373,2.409,2.373-1.125-3.516Z" transform="translate(240.113 124.412)" fill="#fff"/>
            <path id="Tracé_3713" data-name="Tracé 3713" d="M233.857,244.44h-2.778l-.7-2.18-.668,2.18H226.86l2.25,1.952-1.072,3.481,2.338-2.373,2.426,2.373-1.125-3.516Z" transform="translate(171.988 131.736)" fill="#fff"/>
            <path id="Tracé_3714" data-name="Tracé 3714" d="M163.7,320.594h-3.85l-.949-3.024-.949,3.024H154.01l3.112,2.69-1.477,4.817L158.9,324.8l3.34,3.305-1.547-4.87Z" transform="translate(116.759 188.83)" fill="#fff"/>
            <path id="Tracé_3715" data-name="Tracé 3715" d="M346.8,369.936h-3.833L342,366.93l-.932,3.006H337.11l3.13,2.69-1.494,4.817L342,374.156l3.34,3.288-1.547-4.87Z" transform="translate(255.572 226.251)" fill="#fff"/>
            <path id="Tracé_3716" data-name="Tracé 3716" d="M214.557,276.6h-3.85l-.949-3.024-.932,3.024H204.87l3.129,2.69-1.494,4.817,3.253-3.288,3.34,3.288-1.547-4.87Z" transform="translate(155.317 155.48)" fill="#fff"/>
            <ellipse id="Ellipse_82" data-name="Ellipse 82" cx="15.999" cy="15.999" rx="15.999" ry="15.999" transform="translate(628.677 497.738) rotate(-22.5)" fill="#fff"/>
            <path id="Tracé_3717" data-name="Tracé 3717" d="M293.544,106.607a9.037,9.037,0,1,1-9.037-9.037A9.037,9.037,0,0,1,293.544,106.607Z" transform="translate(208.841 22.043)" fill="#fff"/>
            <path id="Tracé_3718" data-name="Tracé 3718" d="M109.868,213.684l-7.437,2.356a9.142,9.142,0,0,0-10.18,6.013L86.5,227.415a.738.738,0,0,0,.721,1.248l7.454-2.25a9.089,9.089,0,0,0,10.461-6.03l5.556-5.38a.791.791,0,0,0-.826-1.319Z" transform="translate(65.399 110.029)" fill="#fff"/>
          </g>
          <path id="Tracé_3938" data-name="Tracé 3938" d="M405.08,75.285a9.965,9.965,0,1,0,9.965-9.965A9.965,9.965,0,0,0,405.08,75.285Z" transform="translate(413.228 236.804)" fill="#fafafa"/>
          <g id="freepik--Moon--inject-13" transform="translate(-116.882 78.734)">
            <path id="Tracé_3812" data-name="Tracé 3812" d="M373.945,67.475l-6.7-6.678a4.907,4.907,0,0,1,0-6.931h0a4.868,4.868,0,0,1,6.931,0l6.7,6.678a4.907,4.907,0,0,1,0,6.931h0a4.906,4.906,0,0,1-6.931,0Z" transform="translate(-273.244 -38.122)" fill="#ebebeb"/>
            <path id="Tracé_3813" data-name="Tracé 3813" d="M417.014,101.757l-4.245-8.45a4.867,4.867,0,0,1,2.181-6.581h0a4.887,4.887,0,0,1,6.581,2.181l4.245,8.45a4.926,4.926,0,0,1-2.181,6.581h0A4.906,4.906,0,0,1,417.014,101.757Z" transform="translate(-407.61 -6.128)" fill="#ebebeb"/>
            <path id="Tracé_3814" data-name="Tracé 3814" d="M393.364,55.541l-5.023-.7a4.907,4.907,0,0,1-4.167-5.549h0a4.907,4.907,0,0,1,5.549-4.167l5.023.72a4.907,4.907,0,0,1,4.167,5.549h0a4.887,4.887,0,0,1-5.549,4.147Z" transform="translate(-325.549 -45.075)" fill="#ebebeb"/>
            <path id="Tracé_3815" data-name="Tracé 3815" d="M361.124,89.024l.72-5.043a4.907,4.907,0,0,1,5.549-4.147h0a4.907,4.907,0,0,1,4.167,5.549l-.72,5.023a4.926,4.926,0,0,1-5.549,4.167h0A4.906,4.906,0,0,1,361.124,89.024Z" transform="translate(-253.317 -12.203)" fill="#ebebeb"/>
            <rect id="Rectangle_12" data-name="Rectangle 12" width="14.875" height="9.794" rx="2.16" transform="translate(9.794 56.241) rotate(90)" fill="#ebebeb"/>
            <path id="Tracé_3816" data-name="Tracé 3816" d="M391.486,111.095l-4.907,1.324a4.907,4.907,0,0,1-6-3.466h0a4.906,4.906,0,0,1,3.466-6.016l4.906-1.3a4.887,4.887,0,0,1,6,3.466h0a4.887,4.887,0,0,1-3.466,6Z" transform="translate(-314.481 8.328)" fill="#ebebeb"/>
            <ellipse id="Ellipse_86" data-name="Ellipse 86" cx="56.561" cy="56.561" rx="56.561" ry="56.561" transform="translate(3.466 4.995)" fill="#ebebeb"/>
            <path id="Tracé_3817" data-name="Tracé 3817" d="M389.837,59.46a12.675,12.675,0,0,0,2.1,7.671,15.187,15.187,0,0,0,6.133,5.432,11.215,11.215,0,0,0,8.314.7,11.683,11.683,0,0,0,6.328-4.848,16.959,16.959,0,0,1-6.8,2.979,9.871,9.871,0,0,1-3.466,0,10.475,10.475,0,0,1-3.29-1.051,17.719,17.719,0,0,1-1.577-.857c-.506-.331-1.012-.643-1.48-1.012A16.629,16.629,0,0,1,393.478,66a19.313,19.313,0,0,1-3.641-6.542Z" transform="translate(-350.39 -31.451)" fill="#c7c7c7"/>
            <path id="Tracé_3818" data-name="Tracé 3818" d="M406.647,66.056a8.042,8.042,0,0,0-1.168-5.413,10.086,10.086,0,0,0-4.264-3.894,7.593,7.593,0,0,0-5.841-.428,7.477,7.477,0,0,0-4.284,3.641,12.7,12.7,0,0,1,4.692-1.733,7.671,7.671,0,0,1,4.361.779A13.26,13.26,0,0,1,406.647,66.056Z" transform="translate(-346.873 -34.795)" fill="#c7c7c7"/>
            <path id="Tracé_3819" data-name="Tracé 3819" d="M374.951,81.08a7.671,7.671,0,0,0-.136,5.393,9.385,9.385,0,0,0,3.271,4.576,7.36,7.36,0,0,0,5.568,1.5,7.476,7.476,0,0,0,4.731-2.609,13.629,13.629,0,0,1-4.829.681,7.184,7.184,0,0,1-3.894-1.538,11.68,11.68,0,0,1-3.018-3.368,14.485,14.485,0,0,1-1.694-4.634Z" transform="translate(-296.018 -10.976)" fill="#c7c7c7"/>
            <path id="Tracé_3820" data-name="Tracé 3820" d="M384.179,88.366a5,5,0,0,0,.37-3.8,6.211,6.211,0,0,0-2.259-3.31,5.16,5.16,0,0,0-4.05-1.012,4.751,4.751,0,0,0-3.271,2.083,10.864,10.864,0,0,1,3.31-.156,5.237,5.237,0,0,1,2.453,1.051,9.618,9.618,0,0,1,3.446,5.14Z" transform="translate(-293.525 -11.837)" fill="#c7c7c7"/>
            <path id="Tracé_3821" data-name="Tracé 3821" d="M368.536,74.62a5,5,0,0,0-1.616,3.622,5.549,5.549,0,0,0,1.6,3.894,4.907,4.907,0,0,0,4.148,1.422,5.958,5.958,0,0,0,3.563-1.694,19.472,19.472,0,0,1-3.524-.234,4.537,4.537,0,0,1-2.434-1.227,5.606,5.606,0,0,1-1.421-2.453,9.989,9.989,0,0,1-.312-3.329Z" transform="translate(-269.315 -17.094)" fill="#c7c7c7"/>
            <path id="Tracé_3822" data-name="Tracé 3822" d="M371.785,80.61a3.271,3.271,0,0,0,1.4-2.512,3.894,3.894,0,0,0-1.129-2.959,3.446,3.446,0,0,0-3.076-.993,3.66,3.66,0,0,0-2.434,1.46,20.95,20.95,0,0,1,2.395.467,3.115,3.115,0,0,1,1.363.8,4.439,4.439,0,0,1,.954,1.421A8.9,8.9,0,0,1,371.785,80.61Z" transform="translate(-265.554 -17.593)" fill="#c7c7c7"/>
            <path id="Tracé_3823" data-name="Tracé 3823" d="M405.222,66a5.062,5.062,0,0,0,1.207,3.777,5.53,5.53,0,0,0,3.894,1.947,5,5,0,0,0,4.03-1.694,5.842,5.842,0,0,0,1.519-3.641,17.529,17.529,0,0,1-2.784,2.161,4.342,4.342,0,0,1-2.609.7,5.841,5.841,0,0,1-2.706-.876A10.823,10.823,0,0,1,405.222,66Z" transform="translate(-383.493 -25.257)" fill="#c7c7c7"/>
            <path id="Tracé_3824" data-name="Tracé 3824" d="M413.3,67.817a3.232,3.232,0,0,0-.6-2.8,3.894,3.894,0,0,0-2.8-1.48,3.543,3.543,0,0,0-2.979,1.324,3.66,3.66,0,0,0-.837,2.706,18.913,18.913,0,0,1,2.1-1.227,2.9,2.9,0,0,1,1.558-.331,4.634,4.634,0,0,1,1.655.428,9.037,9.037,0,0,1,1.908,1.382Z" transform="translate(-382.693 -27.6)" fill="#c7c7c7"/>
            <ellipse id="Ellipse_87" data-name="Ellipse 87" cx="12.539" cy="12.461" rx="12.539" ry="12.461" transform="translate(42.101 84.241) rotate(-114.03)" fill="#dbdbdb"/>
            <path id="Tracé_3825" data-name="Tracé 3825" d="M397.191,80.023a11.312,11.312,0,0,0-6.445,7.983,12.48,12.48,0,1,1,21.807,6.055,11.254,11.254,0,0,0-.389-8.255,11.371,11.371,0,0,0-14.973-5.783Z" transform="translate(-354.687 -18.174)" fill="#c7c7c7"/>
            <path id="Tracé_3826" data-name="Tracé 3826" d="M391.424,81a16.082,16.082,0,0,0,2.745,9.346,19.217,19.217,0,0,0,7.535,6.581,13.941,13.941,0,0,0,10.086.915A14.836,14.836,0,0,0,419.578,92a19.957,19.957,0,0,1-8.333,3.894,20.532,20.532,0,0,1-2.2.214,11.427,11.427,0,0,1-2.161-.175,13.825,13.825,0,0,1-4.011-1.3c-.662-.331-1.343-.7-1.947-1.071a14.317,14.317,0,0,1-1.83-1.3,20.475,20.475,0,0,1-3.252-3.115A22.565,22.565,0,0,1,391.424,81Z" transform="translate(-360.369 -11.052)" fill="#c7c7c7"/>
            <path id="Tracé_3827" data-name="Tracé 3827" d="M416.829,87.873a4.673,4.673,0,1,1,3.466-5.588A4.673,4.673,0,0,1,416.829,87.873Z" transform="translate(-399.461 -13.272)" fill="#dbdbdb"/>
            <path id="Tracé_3828" data-name="Tracé 3828" d="M414.006,80.753a4.244,4.244,0,0,0-2.94,2.473,4.731,4.731,0,0,1,3.6-4.459,4.673,4.673,0,0,1,5.588,3.524,4.615,4.615,0,0,1-1.635,4.692,4.128,4.128,0,0,0,.448-3.057,4.225,4.225,0,0,0-5.062-3.174Z" transform="translate(-399.423 -13.277)" fill="#c7c7c7"/>
            <path id="Tracé_3829" data-name="Tracé 3829" d="M412.08,80.82a5.647,5.647,0,0,0,.234,3.66,6.893,6.893,0,0,0,2.3,3.018,5.14,5.14,0,0,0,3.719,1.051,5.336,5.336,0,0,0,3.291-1.674,7.964,7.964,0,0,1-3.329.72,5.16,5.16,0,0,1-2.94-1.071,8.489,8.489,0,0,1-3.271-5.7Z" transform="translate(-402.248 -11.222)" fill="#c7c7c7"/>
            <path id="Tracé_3830" data-name="Tracé 3830" d="M400.244,105.394a6.639,6.639,0,1,1,6.25-6.99A6.639,6.639,0,0,1,400.244,105.394Z" transform="translate(-350.809 -0.515)" fill="#dbdbdb"/>
            <path id="Tracé_3831" data-name="Tracé 3831" d="M397.911,94.71a5.978,5.978,0,0,0-4.692,2.726,6.62,6.62,0,1,1,9.638,7.146,6.036,6.036,0,0,0-4.946-9.872Z" transform="translate(-350.617 -0.502)" fill="#c7c7c7"/>
            <path id="Tracé_3832" data-name="Tracé 3832" d="M395.716,94.38a8.723,8.723,0,0,0-.37,5.14,9.989,9.989,0,0,0,2.473,4.673,7.243,7.243,0,0,0,4.79,2.356,7.905,7.905,0,0,0,4.984-1.343,10.183,10.183,0,0,1-4.868.389,7.321,7.321,0,0,1-4.011-2.22,11.37,11.37,0,0,1-2.453-4.089A12.032,12.032,0,0,1,395.716,94.38Z" transform="translate(-355.587 1.62)" fill="#c7c7c7"/>
            <path id="Tracé_3833" data-name="Tracé 3833" d="M372.371,73.987c2.979,4.576,9.6,5.549,14.759,2.161s6.951-9.833,3.894-14.408-9.6-5.53-14.778-2.161S369.372,69.489,372.371,73.987Z" transform="translate(-293.341 -33.244)" fill="#dbdbdb"/>
            <path id="Tracé_3834" data-name="Tracé 3834" d="M388.824,66.127a8.625,8.625,0,0,1,.487,8.333A10.222,10.222,0,0,0,391.1,61.824c-2.979-4.576-9.6-5.549-14.778-2.161a11.351,11.351,0,0,0-5.413,10.164,10.767,10.767,0,0,1,4.459-5.841C380.1,61.006,386.117,61.882,388.824,66.127Z" transform="translate(-293.36 -33.172)" fill="#c7c7c7"/>
            <path id="Tracé_3835" data-name="Tracé 3835" d="M374.784,62.16a10.689,10.689,0,0,0-1.46,8.061,9.971,9.971,0,0,0,1.85,3.894,12.438,12.438,0,0,0,3.232,2.979,12.129,12.129,0,0,0,4.186,1.421,14.194,14.194,0,0,0,4.264-.117,17.7,17.7,0,0,0,7.477-3.252,34.813,34.813,0,0,1-7.691,1.324,12.675,12.675,0,0,1-6.97-1.5,10.651,10.651,0,0,1-2.706-2.239,9.736,9.736,0,0,1-1.83-3.057A14.118,14.118,0,0,1,374.784,62.16Z" transform="translate(-299.414 -28.894)" fill="#c7c7c7"/>
          </g>
          <g id="freepik--Stars--inject-1072" transform="translate(755.296 288.453) rotate(124)">
            <path id="Tracé_3687" data-name="Tracé 3687" d="M15.368,0,9.926,9.926,0,15.368l9.926,5.417,5.442,9.951,5.417-9.951,9.952-5.417L20.785,9.926Z" transform="translate(38.193 0)" fill="#263238"/>
            <path id="Tracé_3688" data-name="Tracé 3688" d="M7.029,0,4.56,4.56,0,7.029,4.56,9.523l2.469,4.535L9.523,9.523l4.535-2.494L9.523,4.56Z" transform="translate(21.742 45.575)" fill="#263238"/>
            <path id="Tracé_3689" data-name="Tracé 3689" d="M15.368,0,9.951,9.952,0,15.368,9.951,20.81l5.417,9.951L20.81,20.81l9.951-5.442L20.81,9.952Z" transform="translate(527.428 346.16)" fill="#263238"/>
            <path id="Tracé_3690" data-name="Tracé 3690" d="M15.393,0,9.951,9.926,0,15.368,9.951,20.81l5.442,9.926L20.81,20.81l9.952-5.442L20.81,9.926Z" transform="translate(0 485.103)" fill="#263238"/>
            <path id="Tracé_3691" data-name="Tracé 3691" d="M7.029,0,4.535,4.56,0,7.029,4.535,9.523l2.494,4.535L9.5,9.523l4.56-2.494L9.5,4.56Z" transform="translate(571.869 378.685)" fill="#263238"/>
            <path id="Tracé_3692" data-name="Tracé 3692" d="M7.029,0,4.535,4.535,0,7.029,4.535,9.5l2.494,4.56L9.523,9.5l4.535-2.469L9.523,4.535Z" transform="translate(498.682 288.92)" fill="#263238"/>
          </g>
          <path id="Tracé_3939" data-name="Tracé 3939" d="M48.242,315.429c-2.07-15.043,19.255-27.439,35.141-28.715,7.63-.626,15.525.554,22.745-1.974,15.621-5.44,21.879-25.634,37.115-32.06,11.409-4.814,24.527-.53,35.574,5.03s21.975,12.564,34.323,13.358c10.759.674,22.408-3.3,31.819,1.95,7,3.9,10.663,12.035,17.113,16.728s14.441,5.656,22.384,6.065,15.862.506,23.082,3.9,13.046,10.807,11.553,18.509Z" transform="translate(112.031 362.283)" fill="#ebebeb"/>
          <path id="Tracé_3940" data-name="Tracé 3940" d="M226.739,359.064l-10.222,1.89-2.288,10.769-2.288-10.769-10.222-1.89,10.172-2.487,2.338-10.2,2.338,10.2Z" transform="translate(-2.999 -172.077)" fill="#a6a6a6"/>
          <path id="Tracé_3941" data-name="Tracé 3941" d="M234.341,362.917l-13.327,2.464-2.983,14.041-2.983-14.041-13.327-2.464,13.262-3.243,3.048-13.295,3.048,13.295Z" transform="translate(-74.208 -258.276)" fill="#a6a6a6"/>
          <path id="Tracé_3942" data-name="Tracé 3942" d="M89.244,61.7a17.835,17.835,0,1,0-17.4,18.244A17.835,17.835,0,0,0,89.244,61.7Z" transform="translate(729.059 7.186)" fill="#e0e0e0"/>
        </g>
        <path id="Tracé_3954" data-name="Tracé 3954" d="M102.616-95C16.252-56.476,53.322,58.383,15.406,144.8-27.07,241.683-2.519,303.582,77.712,375.729c45.86,41.252,68.459,95.188,136.205,78.17,118.1-29.684,265.811,55.823,284.12-71.264,5.568-38.585,4.8-246.452-88.518-379.282C328.457-112.036,142.775-112.918,102.616-95Z" transform="matrix(0.07, -0.998, 0.998, 0.07, 226.088, 653.721)" fill="#e6e6e6"/>
      </g>
      <g id="Groupe_96" data-name="Groupe 96" transform="matrix(0.883, 0.469, -0.469, 0.883, 551.507, 1611.66)">
        <g id="noun-targeting-1508029" transform="translate(0 0)">
          <path id="Tracé_3936" data-name="Tracé 3936" d="M456.2,48.922a10.022,10.022,0,0,0-9.132-6.088H414.087l0-32.987A10.023,10.023,0,0,0,408,.715c-3.554-1.522-8.12-.506-11.164,2.028L353.7,45.879a10.02,10.02,0,0,0-3.044,7.1V92.058l-20.3,20.3A198.059,198.059,0,0,0,197.908,61.609C88.805,61.609,0,149.907,0,259.517c0,109.1,88.3,197.908,197.908,197.908A197.993,197.993,0,0,0,345.071,127.071l20.3-20.3h39.075a10.02,10.02,0,0,0,7.1-3.044l43.136-43.136c2.538-3.55,3.554-7.61,1.522-11.671ZM198.414,400.59c-78.147,0-142.088-63.432-142.088-142.088,0-78.147,63.432-142.088,142.088-142.088a142.5,142.5,0,0,1,92.865,34.505L277.07,165.128A122.8,122.8,0,0,0,198.413,136.2c-66.986,0-121.79,54.805-121.79,121.79s54.805,121.79,121.79,121.79S320.2,324.975,320.2,257.991a120.09,120.09,0,0,0-28.927-78.657l14.209-14.209c21.819,24.866,34.505,57.344,34.505,92.865.007,79.17-63.425,142.6-141.571,142.6Zm0-76.119A66.105,66.105,0,0,0,251.7,219.426l14.714-14.209A85.09,85.09,0,0,1,285.188,258.5a86.267,86.267,0,1,1-86.267-86.267A85.106,85.106,0,0,1,252.2,191.009L238,205.724A66.105,66.105,0,0,0,132.95,259.008C132.448,295.043,161.877,324.472,198.414,324.472Z" transform="translate(0 0)" fill="none" stroke="#6224fa" stroke-width="9"/>
        </g>
        <ellipse id="Ellipse_94" data-name="Ellipse 94" cx="182.995" cy="182.995" rx="182.995" ry="182.995" transform="translate(19.482 72.366)" fill="#ededed"/>
      </g>
      <g id="noun-targeting-1508029-2" data-name="noun-targeting-1508029" transform="matrix(0.883, 0.469, -0.469, 0.883, 524.726, 1572.206)">
        <path id="Tracé_3936-2" data-name="Tracé 3936" d="M456.2,48.922a10.022,10.022,0,0,0-9.132-6.088H414.087l0-32.987A10.023,10.023,0,0,0,408,.715c-3.554-1.522-8.12-.506-11.164,2.028L353.7,45.879a10.02,10.02,0,0,0-3.044,7.1V92.058l-20.3,20.3A198.059,198.059,0,0,0,197.908,61.609C88.805,61.609,0,149.907,0,259.517c0,109.1,88.3,197.908,197.908,197.908A197.993,197.993,0,0,0,345.071,127.071l20.3-20.3h39.075a10.02,10.02,0,0,0,7.1-3.044l43.136-43.136c2.538-3.55,3.554-7.61,1.522-11.671ZM198.414,400.59c-78.147,0-142.088-63.432-142.088-142.088,0-78.147,63.432-142.088,142.088-142.088a142.5,142.5,0,0,1,92.865,34.505L277.07,165.128A122.8,122.8,0,0,0,198.413,136.2c-66.986,0-121.79,54.805-121.79,121.79s54.805,121.79,121.79,121.79S320.2,324.975,320.2,257.991a120.09,120.09,0,0,0-28.927-78.657l14.209-14.209c21.819,24.866,34.505,57.344,34.505,92.865.007,79.17-63.425,142.6-141.571,142.6Zm0-76.119A66.105,66.105,0,0,0,251.7,219.426l14.714-14.209A85.09,85.09,0,0,1,285.188,258.5a86.267,86.267,0,1,1-86.267-86.267A85.106,85.106,0,0,1,252.2,191.009L238,205.724A66.105,66.105,0,0,0,132.95,259.008C132.448,295.043,161.877,324.472,198.414,324.472Z" transform="translate(0 0)" fill="#6224fa"/>
      </g>
    </g>
  </g>
</svg>
