<svg xmlns="http://www.w3.org/2000/svg" width="44.625" height="51" viewBox="0 0 44.625 51">
  <path id="iconmonstr-discord-1" d="M40.4,0a5.24,5.24,0,0,1,5.228,5.253V51l-5.483-4.845L37.057,43.3l-3.264-3.034,1.351,4.717H6.228A5.24,5.24,0,0,1,1,39.729V5.253A5.24,5.24,0,0,1,6.228,0H40.4ZM30.554,33.3c5.635-.179,7.8-3.876,7.8-3.876A34.148,34.148,0,0,0,34.685,14.56a12.61,12.61,0,0,0-7.165-2.677l-.357.408a16.971,16.971,0,0,1,6.35,3.239,20.787,20.787,0,0,0-7.675-2.448,21.576,21.576,0,0,0-5.151.051l-.434.051a19.15,19.15,0,0,0-5.788,1.607c-.944.434-1.5.739-1.5.739a17.2,17.2,0,0,1,6.706-3.34l-.255-.306a12.61,12.61,0,0,0-7.165,2.677A34.148,34.148,0,0,0,8.574,29.427s2.142,3.7,7.777,3.876c0,0,.944-1.147,1.708-2.117A7.931,7.931,0,0,1,13.6,28.177l.714.434.1.076.1.057.03.013.1.057a14.944,14.944,0,0,0,1.862.867,21.405,21.405,0,0,0,3.749,1.1,17.863,17.863,0,0,0,6.6.026,16.784,16.784,0,0,0,3.7-1.1,14.592,14.592,0,0,0,2.932-1.5,8.046,8.046,0,0,1-4.615,3.034c.765.969,1.683,2.066,1.683,2.066ZM18.7,21.395a2.841,2.841,0,0,0,0,5.661,2.717,2.717,0,0,0,2.6-2.83A2.7,2.7,0,0,0,18.7,21.395Zm9.307,0a2.841,2.841,0,1,0,2.6,2.83A2.717,2.717,0,0,0,28,21.395Z" transform="translate(-1)" fill-rule="evenodd"/>
</svg>
